{
  "_note1": "KEEP THIS FILE! Check it into a version control system (VCS) like git.",
  "_note2": "ObjectBox manages crucial IDs for your object model. See docs for details.",
  "_note3": "If you have VCS merge conflicts, you must resolve them according to ObjectBox docs.",
  "entities": [
    {
      "id": "3:1920986873079097276",
      "lastPropertyId": "2:5385141696114301008",
      "name": "GlobalConfig",
      "properties": [
        {
          "id": "1:3545279642622564657",
          "name": "id"
        },
        {
          "id": "2:5385141696114301008",
          "name": "isDebug"
        }
      ],
      "relations": []
    },
    {
      "id": "4:3240690737381858606",
      "lastPropertyId": "3:4497601109715029135",
      "name": "CacheDo",
      "properties": [
        {
          "id": "1:5498432885806841786",
          "name": "id"
        },
        {
          "id": "2:4222802205443315095",
          "name": "key"
        },
        {
          "id": "3:4497601109715029135",
          "name": "value"
        }
      ],
      "relations": []
    },
    {
      "id": "7:6175517774173923304",
      "lastPropertyId": "20:640710179476448795",
      "name": "DownloadDo",
      "properties": [
        {
          "id": "1:796061047373164064",
          "name": "id"
        },
        {
          "id": "10:1815676394573753185",
          "name": "fileName"
        },
        {
          "id": "11:6000923907059168897",
          "name": "icon"
        },
        {
          "id": "12:8463028019015439779",
          "name": "localUrl"
        },
        {
          "id": "13:4803672013714658683",
          "name": "serverUrl"
        },
        {
          "id": "14:4892106229274707828",
          "name": "totalSize"
        },
        {
          "id": "15:6161312088327701821",
          "name": "currentSize"
        },
        {
          "id": "16:4846506766704363739",
          "name": "state"
        },
        {
          "id": "17:3653589725548671487",
          "name": "tag"
        },
        {
          "id": "18:2090877111154628911",
          "name": "type"
        },
        {
          "id": "19:2507252896658270777",
          "name": "packageName"
        },
        {
          "id": "20:640710179476448795",
          "name": "downloadTime"
        }
      ],
      "relations": []
    },
    {
      "id": "8:2152165001563244104",
      "lastPropertyId": "31:3650599473466020674",
      "name": "Accounts",
      "properties": [
        {
          "id": "4:8989819175468234466",
          "name": "sqlId"
        },
        {
          "id": "22:3848767691755145529",
          "name": "uid"
        },
        {
          "id": "23:1666539992446916922",
          "name": "apptoken"
        },
        {
          "id": "24:8063831820268160733",
          "name": "imtoken"
        },
        {
          "id": "25:4755072395677159475",
          "name": "display"
        },
        {
          "id": "26:3528073061891454464",
          "name": "images"
        },
        {
          "id": "27:1347570054226336030",
          "name": "rank"
        },
        {
          "id": "30:564808962302764426",
          "name": "info"
        },
        {
          "id": "31:3650599473466020674",
          "name": "paywd"
        }
      ],
      "relations": []
    },
    {
      "id": "9:1357498578967330107",
      "lastPropertyId": "7:54643335958389339",
      "name": "WebHistory",
      "properties": [
        {
          "id": "1:6340795450052583930",
          "name": "id"
        },
        {
          "id": "2:8784306518912388769",
          "name": "url"
        },
        {
          "id": "5:7615527870067779664",
          "name": "title"
        },
        {
          "id": "6:4150398260456340577",
          "name": "time"
        },
        {
          "id": "7:54643335958389339",
          "name": "timeStr"
        }
      ],
      "relations": []
    },
    {
      "id": "10:3553995001016542797",
      "lastPropertyId": "5:1150478800135578983",
      "name": "WebCollect",
      "properties": [
        {
          "id": "1:6834988270273040186",
          "name": "id"
        },
        {
          "id": "2:7572924127136543977",
          "name": "icon"
        },
        {
          "id": "3:1975408156913122743",
          "name": "title"
        },
        {
          "id": "4:7318461472699085686",
          "name": "url"
        },
        {
          "id": "5:1150478800135578983",
          "name": "time"
        }
      ],
      "relations": []
    }
  ],
  "lastEntityId": "10:3553995001016542797",
  "lastIndexId": "0:0",
  "lastRelationId": "0:0",
  "lastSequenceId": "0:0",
  "modelVersion": 4,
  "modelVersionParserMinimum": 4,
  "retiredEntityUids": [
    7317298895336172088,
    1422392174253573389,
    9009237096823456125,
    7660173877611154430
  ],
  "retiredIndexUids": [],
  "retiredPropertyUids": [
    6427515260956328824,
    6402877291689553997,
    3134502980193291372,
    7317464757142450310,
    1200003032165506035,
    6334583877300093162,
    3659928530624080703,
    7279280324703669108,
    7046953164465016795,
    3502593621854619554,
    3271156271617980672,
    2381473700707085609,
    4764390312049679947,
    2400141348523235478,
    5265438492607496370,
    343164791521313680,
    6510556441022877471,
    6322170338003560031,
    2420369879734474300,
    381578503154758829,
    1440193406081647606,
    8781297020886040480,
    2004914726149208625,
    3446287279575939563,
    5903548468250007598,
    5361504107261092798,
    2930757358370687199,
    6003122041967692653,
    3667993060582368749,
    1964366268178507853,
    2887001433800149685,
    7118273078794593090,
    6420278680405281286,
    9173206112480387273,
    1496711476567526845,
    6531553264594324609,
    7886390872507976638,
    7719576733415009741,
    1338033955368903183,
    1045404131524044624,
    14182219933192430,
    1624406555689067521,
    2273630480251576581,
    4838325349527559228,
    5131680358666452486,
    4792666002302262186,
    6155519868514575475,
    7937979929347983374,
    3894399017136935768,
    1072297355739919827,
    7640237556876453475,
    3505279184859986612,
    6692144939181613853,
    954411090128593406,
    4390417702827939652,
    3641620415571354732,
    7161944550417447418,
    730025530943476679,
    2717809609925553201,
    3566565889697907924,
    3402002152176538164,
    5796576846389333441,
    9187271818794388754,
    2530546397126112114,
    3916625325652834624,
    5850948548327283605,
    1212286504686231734,
    7837390024237780835,
    2616783632270639367
  ],
  "retiredRelationUids": [],
  "version": 1
}